^C:\USERS\ГРАНАТИК\SOURCE\REPOS\LAB6.0\LAB6.0\DEBUG\MAIN.OBJ|C:\USERS\ГРАНАТИК\SOURCE\REPOS\LAB6.0\LAB6.0\DEBUG\TREEDICTIONARY.OBJ
C:\USERS\Гранатик\SOURCE\REPOS\LAB6.0\DEBUG\LAB6.0.ILK
C:\USERS\Гранатик\SOURCE\REPOS\LAB6.0\DEBUG\LAB6.0.EXE
C:\USERS\ГРАНАТИК\SOURCE\REPOS\LAB6.0\DEBUG\LAB6.0.PDB
