^C:\USERS\ГРАНАТИК\SOURCE\REPOS\0.1\0.1\BOX.CPP
/c /ZI /JMC /nologo /W3 /WX- /diagnostics:classic /sdl /Od /Oy- /D _MBCS /Gm- /EHsc /RTC1 /MDd /GS /fp:precise /permissive- /Zc:wchar_t /Zc:forScope /Zc:inline /Fo"DEBUG\\" /Fd"DEBUG\VC141.PDB" /Gd /TP /analyze- /FC C:\USERS\ГРАНАТИК\SOURCE\REPOS\0.1\0.1\BOX.CPP
^C:\USERS\ГРАНАТИК\SOURCE\REPOS\0.1\0.1\MAIN.CPP
/c /ZI /JMC /nologo /W3 /WX- /diagnostics:classic /sdl /Od /Oy- /D _MBCS /Gm- /EHsc /RTC1 /MDd /GS /fp:precise /permissive- /Zc:wchar_t /Zc:forScope /Zc:inline /Fo"DEBUG\\" /Fd"DEBUG\VC141.PDB" /Gd /TP /analyze- /FC C:\USERS\ГРАНАТИК\SOURCE\REPOS\0.1\0.1\MAIN.CPP
^C:\USERS\ГРАНАТИК\SOURCE\REPOS\0.1\0.1\CONTAINER.CPP
/c /ZI /JMC /nologo /W3 /WX- /diagnostics:classic /sdl /Od /Oy- /D _MBCS /Gm- /EHsc /RTC1 /MDd /GS /fp:precise /permissive- /Zc:wchar_t /Zc:forScope /Zc:inline /Fo"DEBUG\\" /Fd"DEBUG\VC141.PDB" /Gd /TP /analyze- /FC C:\USERS\ГРАНАТИК\SOURCE\REPOS\0.1\0.1\CONTAINER.CPP
